-8 -16 -24 -32 -40 -48 -56 -64 -72 -80 472
992
-936 -48
-24 -16 -936
96 -40 840
-992
-936 -48
992
56 -8 912
-192 -448 -40 -24 256
-40 -80 664 -40 136
-40 40 -40 -160 680
-24 -48 -880 -16
-40 -24 -24 -24 -24 -24 240 -40 488
72 -24 -24 -40 -40 208 -40 -224 256
