72 -8 16 -32 832
-40 40 -40 848
-56 928
-104 -56 -80 -64 656
152 -48 -56 712
-32 -56 -8 -8 -72 8 -72 -72 600
992
-56 -8 -40 -24 -72 -32 -40 664
-16 112 -16 -40 96 -32 632
-8 -80 -64 40 -80 -48 24 -64 -80 -56 368
-24 -88 -16 -8 32 -64 -48 -88 560
64 -40 16 -24 -24 8 -24 -24 16 -8 664
