32 -24 920
40 -24 -32 872
64 -32 8 -40 -56 752
-40 944
-40 944
16 -80 880
-8 24 -48 152 -56 -72 584
-8 -48 8 -64 -40 -72 -56 640
8 -48 -80 -32 -56 728
8 -80 -64 -40 72 -48 632
16 -32 -56 64 -64 -72 640
-40 56 -32 56 -48 -64 648
