-56 16 -24 48 -72 -72 -72 576
-32 -16 -24 -72 -48 760
992
-72 -48 856
992
-936 -48
-24 -24 24 -32 -72 -56 712
-64 -48 8 -40 -32 -8 -64 672
8 -72 -16 24 -32 64 -56 -48 -64 -64 464
-16 32 -32 -72 -64 736
-992
-8 -16 -24 -32 -40 -48 -56 -64 -72 -80 472
-64 -24 -8 -48 -56 752
